cancensus
…
cancensus utilizes caching to increase speed, minimize API token usage, and to make data available offline. Downloaded data is hashed and stored locally so if a call is made to access the same data, cancensus will read the local version instead. To force cancensus to refresh the data, specify use_cache = FALSE as a parameter for get_census.

Additional parameters for advanced options can be viewed by running ?get_census.

Census Datasets

cancensus can access Statistics Canada Census data for Census years 1996, 2001, 2006, 2011, and 2016 . You can run list_census_datasets to check what datasets are currently available for access through the CensusMapper API. Additional data for the 2016 Census will be included in Censusmapper within a day or two after public release by Statistics Canada. Statistics Canada maintains a release schedule for the Census 2016 Program which can be viewed on their website.

Thanks to contributions by the Canada Mortgage and Housing Corporation (CMHC), cancensus now includes additional Census-linked datasets as open-data releases. These include annual taxfiler data at the census tract level for tax years 2000 through 2017, which includes data on incomes and demographics, as well as specialized crosstabs for Structural type of dwelling by Document type, which details occupancy status for residences. These crosstabs are available for the 2001, 2006, 2011, and 2016 Census years at all levels starting with census tract.

The function list_census_datasets() will show all available datasets alongside their metadata.

list_census_datasets()
#> # A tibble: 28 × 6
#>    dataset description     geo_dataset attribution   reference reference_url    
#>    <chr>   <chr>           <chr>       <chr>         <chr>     <chr>            
#>  1 CA1996  1996 Canada Ce… CA1996      StatCan 1996… 92-351-U  https://www150.s…
#>  2 CA01    2001 Canada Ce… CA01        StatCan 2001… 92-378-X  https://www150.s…
#>  3 CA06    2006 Canada Ce… CA06        StatCan 2006… 92-566-X  https://www150.s…
#>  4 CA11    2011 Canada Ce… CA11        StatCan 2011… 98-301-X… https://www12.st…
#>  5 CA16    2016 Canada Ce… CA16        StatCan 2016… 98-301-X  https://www150.s…
#>  6 CA01xSD 2001 Canada Ce… CA01        StatCan 2001… 92-378-X  https://www150.s…
#>  7 CA06xSD 2006 Canada Ce… CA06        StatCan 2006… 92-566-X  https://www150.s…
#>  8 CA11xSD 2011 Canada Ce… CA11        StatCan 2011… 98-301-X  https://www150.s…
#>  9 CA16xSD 2016 Canada Ce… CA16        StatCan 2016… 98-301-X  https://www150.s…
#> 10 TX2000  2000 T1FF taxf… CA1996      StatCan 2000… 72-212-X  https://www150.s…
#> # … with 18 more rows

As other Census datasets become available via the CensusMapper API, they will be listed as output when calling list_census_datasets().

Census Regions

Census data is aggregated at multiple geographic levels. Census geographies at the national (C), provincial (PR), census metropolitan area (CMA), census agglomeration (CA), census division (CD), and census subdivision (CSD) are defined as named census regions.

Canadian Census geography can change in between Census periods. cancensus provides a function, list_census_regions(dataset), to display all named census regions and their corresponding id for a given census dataset.

list_census_regions("CA16")
#> # A tibble: 5,518 × 8
#>    region name              level     pop municipal_status CMA_UID CD_UID PR_UID
#>    <chr>  <chr>             <chr>   <int> <chr>            <chr>   <chr>  <chr> 
#>  1 01     Canada            C      3.52e7 <NA>             <NA>    <NA>   <NA>  
#>  2 35     Ontario           PR     1.34e7 <NA>             <NA>    <NA>   <NA>  
#>  3 24     Quebec            PR     8.16e6 <NA>             <NA>    <NA>   <NA>  
#>  4 59     British Columbia  PR     4.65e6 <NA>             <NA>    <NA>   <NA>  
#>  5 48     Alberta           PR     4.07e6 <NA>             <NA>    <NA>   <NA>  
#>  6 46     Manitoba          PR     1.28e6 <NA>             <NA>    <NA>   <NA>  
#>  7 47     Saskatchewan      PR     1.10e6 <NA>             <NA>    <NA>   <NA>  
#>  8 12     Nova Scotia       PR     9.24e5 <NA>             <NA>    <NA>   <NA>  
#>  9 13     New Brunswick     PR     7.47e5 <NA>             <NA>    <NA>   <NA>  
#> 10 10     Newfoundland and… PR     5.20e5 <NA>             <NA>    <NA>   <NA>  
#> # … with 5,508 more rows
…
Selecting regions = "59933" and level = "CT" will return data for all 478 census tracts in the Vancouver Census Metropolitan Area. Selecting level = "DA" will return data for all 3450 dissemination areas and selecting level = "DB" will retrieve data for 15,197 dissemination block. Working with CT, DA, EA, and especially DB level data significantly increases the size of data downloads and API usage. To help minimize additional overhead, cancensus supports local data caching to reduce usage and load times.

Setting level = "Regions" will produce data strictly for the selected region without any tiling of data at lower census aggregation levels levels.

Working with Census Variables

Census data contains thousands of different geographic regions as well as thousands of unique variables. In addition to enabling programmatic and reproducible access to Census data, cancensus has a number of tools to help users find the data they are looking for.

Displaying available Census variables

Run list_census_vectors(dataset) to view all available Census variables for a given dataset.

list_census_vectors("CA16")
#> # A tibble: 6,623 × 7
#>    vector     type   label      units parent_vector aggregation  details        
#>    <chr>      <fct>  <chr>      <fct> <chr>         <chr>        <chr>          
#>  1 v_CA16_401 Total  Populatio… Numb… <NA>          Additive     CA 2016 Census…
#>  2 v_CA16_402 Total  Populatio… Numb… <NA>          Additive     CA 2016 Census…
#>  3 v_CA16_403 Total  Populatio… Numb… <NA>          Average of … CA 2016 Census…
#>  4 v_CA16_404 Total  Total pri… Numb… <NA>          Additive     CA 2016 Census…
#>  5 v_CA16_405 Total  Private d… Numb… v_CA16_404    Additive     CA 2016 Census…
#>  6 v_CA16_406 Total  Populatio… Ratio <NA>          Average of … CA 2016 Census…
#>  7 v_CA16_407 Total  Land area… Numb… <NA>          Additive     CA 2016 Census…
#>  8 v_CA16_1   Total  Total - A… Numb… <NA>          Additive     CA 2016 Census…
#>  9 v_CA16_2   Male   Total - A… Numb… <NA>          Additive     CA 2016 Census…
#> 10 v_CA16_3   Female Total - A… Numb… <NA>          Additive     CA 2016 Census…
#> # … with 6,613 more rows
…
