Data discovery
…
Data discovery

Resources for finding available and relevant data

Census datasets

cancensus can access Statistics Canada Census data for the 2001 Census, the 2006 Census, the 2011 Census and National Household Survey, as well as the 2016 Census. You can run list_census_datasets to check what datasets are currently available for access through the CensusMapper API. Additional data for the 2016 Census will be included in Censusmapper within a day or two after public release by Statistics Canada. Statistics Canada maintains a release schedule for the Census 2016 Program which can be viewed on their website.

Thanks to contributions by the Canada Mortgage and Housing Corporation (CMHC), cancensus now includes additional Census-linked datasets as open-data releases. These include annual taxfiler data at the census tract level for tax years 2000 through 2017, which includes data on incomes and demographics, as well as specialized crosstabs for Structural type of dwelling by Document type, which details occupancy status for residences. These crosstabs are available for the 2001, 2006, 2011, and 2016 Census years at all levels starting with census tract.

list_census_datasets()

## # A tibble: 26 x 6
##    dataset description     geo_dataset attribution   reference reference_url    
##    <chr>   <chr>           <chr>       <chr>         <chr>     <chr>            
##  1 CA01    2001 Canada Ce… CA01        StatCan 2001… 92-378-X  https://www150.s…
##  2 CA06    2006 Canada Ce… CA06        StatCan 2006… 92-566-X  https://www150.s…
##  3 CA11    2011 Canada Ce… CA11        StatCan 2011… 98-301-X… https://www12.st…
##  4 CA16    2016 Canada Ce… CA16        StatCan 2016… 98-301-X  https://www150.s…
##  5 CA01xSD 2001 Canada Ce… CA01        StatCan 2001… 92-378-X  https://www150.s…
##  6 CA06xSD 2006 Canada Ce… CA06        StatCan 2006… 92-566-X  https://www150.s…
##  7 CA11xSD 2011 Canada Ce… CA11        StatCan 2011… 98-301-X  https://www150.s…
##  8 CA16xSD 2016 Canada Ce… CA16        StatCan 2016… 98-301-X  https://www150.s…
##  9 TX2000  2000 T1FF taxf… CA01        StatCan 2000… 72-212-X  https://www150.s…
## 10 TX2001  2001 T1FF taxf… CA01        StatCan 2001… 72-212-X  https://www150.s…
## # … with 16 more rows
…
The Census datasets that the cancensus package provides access to are rich in detail but they can be complex to navigate. There are thousands of variable vectors, including separate vector indicators for aggregations split by Total, Female, and Male populations. As a result, the total number of vectors per dataset is significant, ranging from 1,715 in the CA01 dataset to 6,623 in the CA16 one.

View available Census variable vectors

list_census_vectors('CA16')

## # A tibble: 6,623 x 7
##    vector  type   label       units parent_vector aggregation  details          
##    <chr>   <fct>  <chr>       <fct> <chr>         <chr>        <chr>            
##  1 v_CA16… Total  Population… Numb… <NA>          Additive     CA 2016 Census; …
##  2 v_CA16… Total  Population… Numb… <NA>          Additive     CA 2016 Census; …
##  3 v_CA16… Total  Population… Numb… <NA>          Average of … CA 2016 Census; …
##  4 v_CA16… Total  Total priv… Numb… <NA>          Additive     CA 2016 Census; …
##  5 v_CA16… Total  Private dw… Numb… v_CA16_404    Additive     CA 2016 Census; …
##  6 v_CA16… Total  Population… Ratio <NA>          Average of … CA 2016 Census; …
##  7 v_CA16… Total  Land area … Numb… <NA>          Additive     CA 2016 Census; …
##  8 v_CA16… Total  Total - Age Numb… <NA>          Additive     CA 2016 Census; …
##  9 v_CA16… Male   Total - Age Numb… <NA>          Additive     CA 2016 Census; …
## 10 v_CA16… Female Total - Age Numb… <NA>          Additive     CA 2016 Census; …
## # … with 6,613 more rows
…
Keyword search will show all results that have the highest number of unique keyword matches. What happens if there are other keyword matches that have fewer total matches? By default, the function argument is set as interactive = TRUE, which will prompt the user with a console menu option to see the rest of the matches or not. If using find_census_vectors() in a script or reproducible documentation, we recommend setting this argument to interactive = FALSE.

Semantic search

Semantic search works best with phrases. Rather than the decontextualized unigrams of keyword search, semantic search splits queries and vector details into n-grams and finds matches using approximate string distances based on the generalized Levenshtein distance.

find_census_vectors("after tax incomes", dataset = "CA16", type = "total", query_type = "semantic")

## # A tibble: 56 x 4
##    vector   type  label                          details                        
##    <chr>    <fct> <chr>                          <chr>                          
##  1 v_CA16_… Total Number of after-tax income re… Income; Individuals; Total - I…
##  2 v_CA16_… Total Median after-tax income in 20… Income; Individuals; Total - I…
##  3 v_CA16_… Total Percentage with after-tax inc… Income; Individuals; Total - I…
##  4 v_CA16_… Total Total - After-tax income grou… Income; Individuals; Total - A…
##  5 v_CA16_… Total Without after-tax income       Income; Individuals; Total - A…
##  6 v_CA16_… Total With after-tax income          Income; Individuals; Total - A…
##  7 v_CA16_… Total Under $10,000 (including loss) Income; Individuals; Total - A…
##  8 v_CA16_… Total $10,000 to $19,999             Income; Individuals; Total - A…
##  9 v_CA16_… Total $20,000 to $29,999             Income; Individuals; Total - A…
## 10 v_CA16_… Total $30,000 to $39,999             Income; Individuals; Total - A…
## # … with 46 more rows
…
A note on Census Metropolitan Areas and Census Agglomerations

Data can also be extracted at the Census Metropolitan Area (CMA) or Census Agglomeration (CA) level, which is derived from a variant of the SGC known as the Statistical Area Classification. Hierarchically, CMAs and CAs represent a collection of constituent Census subdivisions.

A Census metropolitan area consists of adjacent municipalities with a defined core with a total population of at least 100,000 of which 50,000 or more must live in the core based on Census data. Adjacent municipalities must have a high degree of integration with the core, which Statistics Canada measures based on the commuting flows indicated in Census data. Census Agglomeration areas have to have a core population above 10,000.

All CMAs and CAs consist of Census subdivisions but not all Census subdivisions are a subset of a CMA or a CA. For more details on CMAs and CAs, consult Statistics Canada’s Census Dictionary article for Census metropolitan areas (CMA) and census agglomerations (CA). All CMAs and some CAs have data at the Census tract level, but most CAs do not. The 2016 Census has 35 CMAs and 14 CAs with Census tracts that have their own defined geography. There are a further 106 CAs without Census tracts that do not have their own distinctly defined geographies.

Viewing available Census regions

For any valid Census dataset, you can view all available Census regions by calling list_census_regions(dataset). This will retrieve the region code, the name, and the level code indicating the type of geography. Other information includes population, municipal status, as well as parent geographic ids for lower levels. All CMAs are included with their own defined geography, as well as those CAs which have their own Census tracts.

list_census_regions('CA16')

## # A tibble: 5,504 x 8
##    region name              level     pop municipal_status CMA_UID CD_UID PR_UID
##    <chr>  <chr>             <chr>   <int> <chr>            <chr>   <chr>  <chr> 
##  1 01     Canada            C      3.52e7 <NA>             <NA>    <NA>   <NA>  
##  2 35     Ontario           PR     1.34e7 <NA>             <NA>    <NA>   <NA>  
##  3 24     Quebec            PR     8.16e6 <NA>             <NA>    <NA>   <NA>  
##  4 59     British Columbia  PR     4.65e6 <NA>             <NA>    <NA>   <NA>  
##  5 48     Alberta           PR     4.07e6 <NA>             <NA>    <NA>   <NA>  
##  6 46     Manitoba          PR     1.28e6 <NA>             <NA>    <NA>   <NA>  
##  7 47     Saskatchewan      PR     1.10e6 <NA>             <NA>    <NA>   <NA>  
##  8 12     Nova Scotia       PR     9.24e5 <NA>             <NA>    <NA>   <NA>  
##  9 13     New Brunswick     PR     7.47e5 <NA>             <NA>    <NA>   <NA>  
## 10 10     Newfoundland and… PR     5.20e5 <NA>             <NA>    <NA>   <NA>  
## # … with 5,494 more rows
…
